<?xml version="1.0" encoding="UTF-8" standalone="no"?>
<!-- Created with Inkscape (http://www.inkscape.org/) -->

<svg
   xmlns:dc="http://purl.org/dc/elements/1.1/"
   xmlns:cc="http://creativecommons.org/ns#"
   xmlns:rdf="http://www.w3.org/1999/02/22-rdf-syntax-ns#"
   xmlns:svg="http://www.w3.org/2000/svg"
   xmlns="http://www.w3.org/2000/svg"
   xmlns:sodipodi="http://sodipodi.sourceforge.net/DTD/sodipodi-0.dtd"
   xmlns:inkscape="http://www.inkscape.org/namespaces/inkscape"
   id="svg2985"
   version="1.1"
   inkscape:version="0.48.4 r9939"
   width="1052.3625"
   height="744.09996"
   xml:space="preserve"
   sodipodi:docname="ARPA_logo_Europe_V3.svg"><sodipodi:namedview
     pagecolor="#ffffff"
     bordercolor="#666666"
     borderopacity="1"
     objecttolerance="10"
     gridtolerance="10"
     guidetolerance="10"
     inkscape:pageopacity="0"
     inkscape:pageshadow="2"
     inkscape:window-width="1920"
     inkscape:window-height="1058"
     id="namedview2987"
     showgrid="false"
     inkscape:zoom="1.1705416"
     inkscape:cx="379.24075"
     inkscape:cy="394.49616"
     inkscape:window-x="-8"
     inkscape:window-y="-8"
     inkscape:window-maximized="1"
     inkscape:current-layer="g2993" /><metadata
     id="metadata2991"><rdf:RDF><cc:Work
         rdf:about=""><dc:format>image/svg+xml</dc:format><dc:type
           rdf:resource="http://purl.org/dc/dcmitype/StillImage" /><dc:title /></cc:Work></rdf:RDF></metadata><defs
     id="defs2989"><clipPath
       clipPathUnits="userSpaceOnUse"
       id="clipPath3007"><path
         d="M 0,0 842,0 842,596 0,596 0,0 z"
         id="path3009" /></clipPath></defs><g
     id="g2993"
     inkscape:groupmode="layer"
     inkscape:label="ARPA_logo_Europe"
     transform="matrix(1.25,0,0,-1.25,0,744.09996)"><g
       id="g2995"><path
         d="m 673.27,264.553 -29.563,70.891 -26.789,-70.891 56.352,0 z M 669.43,379.049 739.176,222.022 714,196.663 l -12.418,0 -15.027,36.035 -81.676,0 -13.621,-36.035 -48.141,0 73.672,182.386 52.641,0 z"
         style="fill:#003399;fill-opacity:1;fill-rule:nonzero;stroke:none"
         id="path2997" /><path
         d="m 619.813,266.553 50.457,0 -26.469,63.477 -23.988,-63.477 z m 56.46,-4 -62.25,0 29.594,78.309 32.656,-78.309 z m 26.641,-63.89 10.254,0 23.625,23.797 -68.664,154.589 -49.992,0 -72.055,-178.386 43.797,0 13.617,36.035 84.391,0 15.027,-36.035 z m 11.918,-4 -14.582,0 -15.027,36.035 -78.965,0 -13.617,-36.035 -52.489,0 75.286,186.386 55.292,0 0.528,-1.187 70.301,-158.281 -26.727,-26.918 z"
         style="fill:#ffffff;fill-opacity:1;fill-rule:nonzero;stroke:none"
         id="path2999" /></g><g
       id="g3001"><g
         id="g3003"
         transform="translate(0,-0.720032)"><g
           id="g3005" /><g
           id="g3011"><g
             clip-path="url(#clipPath3007)"
             id="g3013"><g
               id="g3015"><path
                 d="m 521.477,346.348 0,-42.301 21.148,0 c 18.887,0 28.332,7.051 28.332,21.152 0,7.918 -2.527,13.422 -7.574,16.512 -5.047,3.09 -13.664,4.637 -25.848,4.637 l -16.058,0 z m -45.434,33.422 81.336,0 c 18.453,0 33.117,-5.352 43.996,-16.059 10.879,-10.707 16.32,-23.367 16.32,-37.992 0,-15.145 -5.375,-28.114 -16.121,-38.903 -10.75,-10.793 -25.394,-16.191 -43.933,-16.191 l -36.164,0 0,-73.242 -45.434,0 0,182.387 z"
                 style="fill:#003399;fill-opacity:1;fill-rule:nonzero;stroke:none"
                 id="path3017" /><path
                 d="m 523.477,306.047 19.148,0 c 17.719,0 26.332,6.266 26.332,19.152 0,7.239 -2.164,12.082 -6.617,14.809 -4.707,2.879 -13.055,4.34 -24.805,4.34 l -14.058,0 0,-38.301 z m 19.148,-4 -23.148,0 0,46.301 18.058,0 c 12.676,0 21.473,-1.614 26.895,-4.93 5.66,-3.465 8.527,-9.594 8.527,-18.219 0,-15.363 -10.203,-23.152 -30.332,-23.152 m -64.582,-102.66 41.434,0 0,73.238 38.164,0 c 17.898,0 32.203,5.25 42.515,15.602 10.313,10.351 15.539,22.968 15.539,37.492 0,14 -5.289,26.301 -15.722,36.566 -10.442,10.274 -24.77,15.485 -42.594,15.485 l -79.336,0 0,-178.383 z m 45.434,-4 -49.434,0 0,186.383 83.336,0 c 18.91,0 34.184,-5.598 45.402,-16.633 11.223,-11.047 16.914,-24.309 16.914,-39.418 0,-15.621 -5.621,-29.188 -16.707,-40.317 -11.086,-11.132 -26.343,-16.777 -45.347,-16.777 l -34.164,0 0,-73.238 z"
                 style="fill:#ffffff;fill-opacity:1;fill-rule:nonzero;stroke:none"
                 id="path3019" /><path
                 d="m 392.133,346.348 0,-41.516 24.019,0 c 7.661,0 13.731,1.805 18.215,5.418 4.481,3.609 6.723,8.766 6.723,15.469 0,13.754 -8.66,20.629 -25.981,20.629 l -22.976,0 z m -45.434,33.422 81.465,0 c 17.668,0 32.031,-5.11 43.082,-15.332 11.055,-10.219 16.582,-22.594 16.582,-37.118 0,-20.093 -10.441,-34.965 -31.332,-44.617 9.156,-4.168 17.859,-15.387 26.106,-33.648 8.25,-18.27 16.214,-35.492 23.894,-51.672 l -49.851,0 c -2.981,6.008 -8.165,17.449 -15.559,34.336 -7.395,16.883 -13.727,27.722 -18.992,32.508 -5.266,4.789 -10.903,7.179 -16.906,7.179 l -13.055,0 0,-74.023 -45.434,0 0,182.387 z"
                 style="fill:#003399;fill-opacity:1;fill-rule:nonzero;stroke:none"
                 id="path3021" /><path
                 d="m 394.133,306.832 22.019,0 c 7.157,0 12.864,1.672 16.957,4.973 4.024,3.242 5.981,7.793 5.981,13.914 0,12.535 -7.844,18.629 -23.981,18.629 l -20.976,0 0,-37.516 z m 22.019,-4 -26.019,0 0,45.516 24.976,0 c 23.125,0 27.981,-12.305 27.981,-22.629 0,-7.305 -2.512,-13.035 -7.469,-17.028 -4.828,-3.89 -11.375,-5.859 -19.469,-5.859 m 41.739,-103.449 45.445,0 c -7.238,15.301 -14.82,31.715 -22.559,48.847 -8.004,17.727 -16.453,28.711 -25.109,32.649 l -3.969,1.809 3.957,1.828 c 20.301,9.382 30.172,23.386 30.172,42.804 0,13.879 -5.363,25.871 -15.937,35.653 -10.621,9.816 -24.661,14.797 -41.727,14.797 l -79.465,0 0,-178.387 41.434,0 0,74.027 15.055,0 c 6.488,0 12.628,-2.594 18.25,-7.703 5.527,-5.023 11.898,-15.879 19.48,-33.184 6.906,-15.777 11.937,-26.91 14.973,-33.14 m 51.769,-4 -54.258,0 -0.55,1.113 c -2.985,6.02 -8.235,17.602 -15.598,34.422 -7.25,16.547 -13.477,27.258 -18.508,31.832 -4.93,4.48 -10.019,6.66 -15.558,6.66 l -11.055,0 0,-74.027 -49.434,0 0,186.387 83.465,0 c 18.106,0 33.059,-5.336 44.441,-15.86 11.43,-10.57 17.223,-23.551 17.223,-38.59 0,-19.687 -9.75,-34.718 -28.996,-44.722 8.348,-5.364 16.098,-16.125 23.594,-32.723 8.207,-18.176 16.242,-35.551 23.879,-51.633 l 1.355,-2.859 z"
                 style="fill:#ffffff;fill-opacity:1;fill-rule:nonzero;stroke:none"
                 id="path3023" /><path
                 d="m 285.77,324.797 -54.477,122.297 -50.52,-122.297 104.997,0 z m -71.024,196.5 33.977,0 151.398,-339.586 -49.476,0 -45.004,100.062 -144.055,0 -20.856,-49.46 -34.597,34.664 108.613,254.32 z"
                 style="fill:#003399;fill-opacity:1;fill-rule:nonzero;stroke:none"
                 id="path3025" /><path
                 d="m 183.766,326.797 98.922,0 -51.325,115.226 -47.597,-115.226 z m 105.082,-4 -111.063,0 53.438,129.371 57.625,-129.371 z m 63.09,-139.086 45.101,0 -149.617,335.586 -31.356,0 -107.562,-251.863 31.539,-31.602 20.215,47.941 146.676,0 45.004,-100.062 z m 51.261,-4 -53.847,0 -45.004,100.062 -141.438,0 -21.496,-50.98 -37.648,37.727 109.66,256.777 36.594,0 0.527,-1.184 152.652,-342.402 z"
                 style="fill:#ffffff;fill-opacity:1;fill-rule:nonzero;stroke:none"
                 id="path3027" /><path
                 d="m 197.008,177.402 c -1.793,0 -4.004,0.395 -6.567,1.18 l -0.183,0.055 -0.164,0.101 c -6.457,3.985 -14.18,9.25 -14.918,12.047 -0.809,2.27 -3.442,8.32 -6.375,10.274 -0.715,0.433 -7.395,4.664 -7.153,9.789 0.118,2.527 1.844,4.672 5.137,6.371 1.25,1.957 7.215,11.094 11.203,13.965 8.024,7.968 20.34,20.566 22.137,23.351 1.004,3.028 2.094,7.91 1.453,9.621 -0.328,0.731 -8.633,19.758 -7.211,36.239 -1.961,3.382 -11.262,23.632 9.809,75.273 0.312,0.715 7.492,16.672 28.551,25.121 0.843,2.258 2.695,6.141 5.398,6.141 0.184,0 0.395,-0.016 0.621,-0.071 0.449,0.657 1.086,1.321 1.957,1.832 0.442,1.739 1.676,5.997 3.727,8.274 0.203,1.707 1.449,5.973 8.3,12.265 0.286,0.243 2.43,1.926 6.583,1.926 1.097,0 2.25,-0.121 3.421,-0.359 l 0.114,-0.027 c 0.207,-0.059 20.781,-6.157 23.82,-30.45 l 0.023,-0.195 -0.027,-0.191 c -0.355,-2.664 -1.758,-3.211 -2.559,-3.301 l -0.128,-0.012 -0.129,0.008 c -0.145,0.008 -3.285,0.215 -6.383,1.582 -0.172,-0.172 -0.36,-0.352 -0.555,-0.531 0.07,-2.207 0.004,-8.207 -2.594,-10.801 l -0.144,-0.145 -0.18,-0.101 c -0.156,-0.09 -0.742,-0.379 -1.695,-0.379 -0.703,0 -1.438,0.152 -2.195,0.457 -0.149,-1.07 -0.539,-2.125 -1.438,-2.664 -0.285,-0.359 -0.629,-0.719 -1.016,-0.988 -0.3,-2.004 -1.371,-4.473 -4.031,-4.473 -0.078,0 -0.152,0.004 -0.23,0.008 -0.125,0.011 -2.008,0.187 -5.996,1.543 -0.161,-1.418 -0.465,-3.352 -1.02,-4.973 0.352,-1.547 1.563,-6.93 2.328,-11.019 0.949,-2.165 9.43,-22.149 7.25,-37.883 -0.297,-9.059 -7.82,-16.824 -12.203,-18.727 0.883,-4.926 3.547,-20.242 3.172,-23.941 0.293,-2.211 2.641,-20.34 2.305,-25.297 0.441,-2.422 4.918,-26.863 6.355,-31.375 3.422,-7.59 9.285,-20.039 10.695,-21.664 1.559,-1.43 5.653,-5.051 7.731,-6.356 1.164,0.102 4.18,0.344 7.008,0.344 3.59,0 4.941,-0.398 5.617,-0.726 0.672,-0.235 3.215,-1.274 3.531,-3.668 0.285,-2.133 -1.312,-4.282 -4.875,-6.571 -0.812,-0.656 -3.781,-2.297 -13.742,-3.289 l -0.246,-0.027 -0.246,0.058 c -0.063,0.016 -6.145,1.438 -10.395,1.438 l -0.086,0 c -1.125,-0.84 -4.273,-2.902 -8.918,-3.606 -0.16,-0.023 -3.804,-0.546 -6.742,-0.546 -1.058,0 -1.902,0.066 -2.562,0.203 -0.129,-0.008 -0.293,-0.016 -0.477,-0.016 -1.621,0 -3.027,0.633 -3.969,1.781 -1.328,1.625 -1.652,4.184 -0.957,7.598 l 0.02,0.102 0.035,0.097 c 0.379,1.063 0.695,2.285 0.715,2.727 -0.082,0.23 -0.16,0.519 -0.106,0.851 -0.55,2.012 -1.711,5.762 -3.527,9.215 l -0.109,0.207 -0.043,0.227 c -2.278,12.828 -8.367,44.922 -11.77,54.703 -5.758,-9.059 -26.578,-41.461 -38.535,-55.281 0.328,-2.317 1.922,-10.739 8.285,-15.84 l 0.278,-0.219 0.148,-0.324 c 0.242,-0.527 2.316,-5.246 0.277,-8.426 -1.066,-1.668 -2.953,-2.512 -5.605,-2.512"
                 style="fill:#003363;fill-opacity:1;fill-rule:nonzero;stroke:none"
                 id="path3029" /><path
                 d="m 259.313,432.656 c -4.68,0 -7.215,-1.996 -7.489,-2.222 l -0.054,-0.047 -0.055,-0.051 c -6.578,-6.047 -8.293,-10.453 -8.699,-12.723 -1.899,-2.336 -3.067,-5.941 -3.618,-7.976 -0.531,-0.371 -0.972,-0.785 -1.335,-1.207 -3.25,-0.047 -5.348,-3.641 -6.5,-6.496 C 210.41,393.195 203.121,377 202.816,376.305 l -0.031,-0.071 c -20.457,-50.144 -12.441,-71.394 -9.949,-76.156 -1.234,-16.297 6.594,-34.75 7.355,-36.5 0.348,-1.101 -0.316,-4.984 -1.429,-8.383 -1.903,-2.757 -13.645,-14.812 -21.75,-22.871 -4.032,-2.976 -9.582,-11.328 -11.278,-13.965 -3.566,-1.937 -5.445,-4.437 -5.586,-7.441 -0.269,-5.781 6.36,-10.211 7.86,-11.133 2.344,-1.605 4.793,-6.855 5.707,-9.367 0.402,-1.758 2.133,-3.813 8.426,-8.227 3.558,-2.5 7.019,-4.64 7.164,-4.73 l 0.328,-0.203 0.371,-0.11 c 2.742,-0.839 5.035,-1.246 7.004,-1.246 3.984,0 5.933,1.743 6.871,3.203 2.414,3.77 0.273,8.879 -0.18,9.864 l -0.297,0.644 -0.554,0.442 c -5.489,4.398 -7.172,11.433 -7.637,14.211 11.207,13.132 29.16,40.746 36.488,52.214 3.094,-10.882 7.914,-35.46 10.754,-51.441 l 0.082,-0.461 0.219,-0.414 c 1.687,-3.199 2.789,-6.676 3.34,-8.668 -0.008,-0.254 0.019,-0.531 0.09,-0.828 -0.094,-0.504 -0.368,-1.445 -0.598,-2.09 l -0.07,-0.199 -0.039,-0.207 c -0.789,-3.875 -0.364,-6.852 1.265,-8.844 1.227,-1.504 3.051,-2.336 5.129,-2.336 0.137,0 0.266,0.004 0.383,0.012 0.726,-0.133 1.601,-0.195 2.656,-0.195 3.047,0 6.793,0.539 6.949,0.562 4.465,0.672 7.672,2.539 9.184,3.586 4.059,-0.082 9.605,-1.379 9.664,-1.394 l 0.488,-0.114 0.5,0.047 c 9.551,0.957 13.121,2.535 14.453,3.555 1.661,1.062 6.032,3.98 5.5,7.996 -0.339,2.566 -2.558,4.199 -4.453,4.867 -0.922,0.43 -2.472,0.828 -6.179,0.828 -2.528,0 -5.2,-0.183 -6.625,-0.301 -1.84,1.262 -5.09,4.079 -7.024,5.848 -1.242,1.594 -6.215,11.922 -10.383,21.168 -1.23,3.953 -4.855,23.254 -6.254,30.934 0.27,5.277 -1.882,22.035 -2.304,25.254 0.258,3.992 -1.856,16.589 -3.008,23.058 5.078,2.844 11.703,10.785 12.027,19.43 2.153,15.785 -6.05,35.562 -7.3,38.457 -0.727,3.832 -1.786,8.598 -2.219,10.504 0.312,1 0.539,2.074 0.707,3.066 2.918,-0.887 4.375,-1.039 4.578,-1.058 l 0.047,-0.004 0.043,-0.004 c 0.109,-0.004 0.211,-0.008 0.316,-0.008 3.071,0 4.832,2.43 5.41,5.156 0.239,0.215 0.457,0.446 0.653,0.68 0.64,0.457 1.136,1.109 1.476,1.93 0.383,-0.067 0.766,-0.098 1.145,-0.098 1.277,0 2.125,0.402 2.433,0.574 l 0.352,0.199 0.289,0.289 c 2.527,2.524 3.012,7.407 3.051,10.414 2.672,-0.906 5,-1.078 5.332,-1.101 l 0.254,-0.016 0.258,0.032 c 0.777,0.085 3.359,0.668 3.882,4.593 l 0.051,0.383 -0.047,0.383 c -3.16,25.273 -24.015,31.457 -24.902,31.711 l -0.109,0.031 -0.11,0.024 c -1.273,0.257 -2.527,0.386 -3.722,0.386 M 249.09,195.402 c 0,0 0.023,-0.058 0.078,-0.203 l 0.004,0 c -0.047,0.117 -0.082,0.203 -0.082,0.203 m 10.223,234.254 c 0.925,0 1.964,-0.093 3.125,-0.328 0,0 19.792,-5.605 22.742,-29.195 -0.11,-0.801 -0.41,-1.918 -1.239,-2.008 0,0 -3.656,0.227 -6.8,1.906 0,0 -0.957,-1.043 -1.762,-1.695 0,0 0.512,-7.762 -2.125,-10.398 0,0 -0.328,-0.184 -0.953,-0.184 -0.789,0 -2.047,0.289 -3.723,1.594 0,0 0.524,-3.664 -0.898,-4.11 0,0 -0.789,-1.125 -1.313,-1.125 -0.047,0 -0.086,0.008 -0.129,0.028 0,0 -0.093,-4.055 -2.621,-4.055 -0.047,0 -0.094,0.004 -0.144,0.004 0,0 -2.282,0.199 -7.41,2.117 0,0 -0.196,-4.215 -1.25,-6.945 0,0 1.542,-6.723 2.445,-11.563 0,0 9.461,-21.234 7.195,-37.308 -0.269,-9.657 -9.535,-17.672 -12.422,-17.801 0,0 3.957,-21.582 3.375,-25 0,0 2.739,-20.664 2.305,-25.371 0,0 4.941,-27.176 6.465,-31.84 0,0 9.008,-19.992 11.031,-22.18 0,0 5.934,-5.453 8.453,-6.836 0,0 3.863,0.379 7.356,0.379 2.148,0 4.156,-0.14 5.035,-0.609 0,0 6.926,-2.172 -1.66,-7.645 0,0 -1.938,-1.902 -12.996,-3.004 0,0 -6.258,1.477 -10.739,1.477 -0.211,0 -0.418,-0.004 -0.621,-0.012 0,0 -3.207,-2.793 -8.605,-3.609 0,0 -3.657,-0.531 -6.52,-0.531 -0.976,0 -1.859,0.062 -2.476,0.226 0,0 -0.219,-0.043 -0.563,-0.043 -1.406,0 -4.859,0.676 -3.457,7.582 0,0 1.031,2.903 0.758,3.625 0.105,-0.273 0.277,-0.711 0.277,-0.711 0,0 -1.269,5.813 -4.043,11.078 0,0 -9.16,51.547 -13.008,57.618 0,0 -26.48,-42.204 -40.339,-57.977 0,0 0.898,-11.07 8.914,-17.496 0,0 4.058,-8.809 -3.965,-8.809 -1.551,0 -3.555,0.328 -6.129,1.114 0,0 -13.961,8.613 -14.258,11.187 0,0 -2.945,8.41 -6.988,11.106 0,0 -13.317,8.129 -1.805,13.757 0,0 6.953,11.055 11.129,13.965 0,0 20.402,20.262 22.535,23.864 0,0 2.629,7.757 1.488,10.789 0,0 -8.691,19.679 -7.074,36.074 0,0 -13.082,18.605 9.66,74.344 0,0 7.125,16.293 28.344,24.543 0,0 1.973,5.785 4.215,5.785 0.418,0 0.844,-0.2 1.273,-0.676 0,0 0.45,2.008 2.602,2.91 0,0 1.414,6.406 3.898,8.652 0,0 -0.398,4.235 7.848,11.809 0,0 1.836,1.531 5.567,1.531"
                 style="fill:#ffffff;fill-opacity:1;fill-rule:nonzero;stroke:none"
                 id="path3031" /><path
                 d="m 225.07,209.762 c -0.222,-0.102 -0.433,-0.203 -0.632,-0.313 0.222,0.016 0.449,0.039 0.671,0.055 -0.019,0.086 -0.031,0.172 -0.039,0.258 m 293.86,-96.778 c -102.364,-0.004 -187.664,45.051 -191.246,46.969 -9.039,4.84 -21.649,9.363 -36.25,14.594 l -3.145,1.129 c -7.203,2.582 -13.203,3.789 -18.879,3.789 -5.594,0 -10.371,-1.152 -15.902,-2.485 -4.75,-1.148 -10.137,-2.445 -16.863,-3.164 -4.207,-0.449 -7.766,-0.984 -10.883,-1.636 -0.137,-0.028 -0.274,-0.039 -0.41,-0.039 -0.461,0 -0.914,0.16 -1.274,0.457 -1.836,-0.371 -3.496,-0.594 -5.062,-0.739 -0.008,-0.863 -0.578,-1.648 -1.442,-1.902 -2.828,-0.828 -5.312,-1.305 -9.648,-1.305 -1.188,0 -2.473,0.036 -3.93,0.11 -9.699,0.492 -12.891,2.035 -17.308,4.176 -2.922,1.414 -6.563,3.175 -13.43,5.148 -7.258,2.082 -12.32,2.633 -17.215,3.168 -0.352,0.039 -0.699,0.074 -1.047,0.113 -0.16,-0.722 -0.719,-1.316 -1.469,-1.504 l -1.238,-0.312 c -5.848,-1.461 -11.367,-2.844 -15.332,-2.844 -1.004,0 -1.875,0.086 -2.652,0.262 -3.547,0.801 -5.532,2.312 -9.137,5.058 -3.008,2.293 -7.125,5.434 -14.434,9.946 -6.078,3.754 -6.41,4.027 -9.004,6.156 -0.652,0.535 -1.453,1.191 -2.546,2.066 -1.786,1.43 -2.903,2.239 -3.801,2.887 -1.828,1.324 -2.93,2.121 -6.785,5.922 -2.993,2.949 -5.024,5.133 -6.981,7.246 -1.82,1.961 -3.539,3.813 -5.929,6.176 -2.758,2.722 -4.809,3.887 -6.032,4.582 -1.062,0.605 -2.066,1.176 -2.285,2.426 -0.008,0.046 -0.019,0.152 -0.023,0.16 -0.016,0.125 -0.02,0.254 -0.012,0.383 0.008,0.058 0.023,0.191 0.031,0.253 0.02,0.133 0.055,0.262 0.102,0.387 -0.102,0.313 -0.125,0.645 -0.051,0.969 0.473,2.156 1.273,4.602 3.613,6.352 0,0 0.114,0.093 0.145,0.113 1.449,1.031 3.429,1.765 6.054,2.238 0.215,0.043 0.434,0.074 0.657,0.102 -0.422,0.523 -0.864,1.062 -1.328,1.629 -2.954,3.582 -5.254,5.207 -6.625,6.175 -0.903,0.637 -1.551,1.094 -1.942,1.813 -0.019,0.039 -0.058,0.121 -0.074,0.16 -0.02,0.043 -0.051,0.105 -0.066,0.148 -0.032,0.086 -0.075,0.227 -0.102,0.372 -0.008,0.031 -0.016,0.074 -0.02,0.093 -0.019,0.086 -0.031,0.172 -0.039,0.262 -0.007,0.117 -0.007,0.262 0.008,0.391 0,0.043 0.004,0.086 0.008,0.129 0.027,0.273 0.109,0.539 0.238,0.777 0,0.004 0.004,0.012 0.008,0.015 -0.094,0.364 -0.082,0.754 0.039,1.122 0.555,1.691 1.555,3.128 2.965,4.273 0.082,0.066 0.168,0.125 0.258,0.184 0.055,0.046 0.215,0.175 0.254,0.207 0.074,0.062 0.172,0.136 0.277,0.203 2.266,1.547 5.551,2.476 9.984,2.797 0.391,0.031 0.782,0.047 1.168,0.047 8.743,0 15.457,-7.325 20.332,-13.704 1.68,-2.199 4.555,-5.144 7.325,-7.507 0.246,-0.211 0.433,-0.473 0.55,-0.762 0.383,-0.035 0.758,-0.18 1.071,-0.434 2.668,-2.148 5.48,-4.207 8.25,-6.207 -0.293,0.461 -0.61,0.973 -0.961,1.535 -0.527,0.852 -1.141,1.836 -1.871,2.996 -2.621,4.161 -3.946,7.211 -5.231,10.165 -1.07,2.457 -2.082,4.777 -3.82,7.796 -2.195,3.801 -4.055,5.719 -5.164,6.864 -0.91,0.937 -1.629,1.675 -1.664,2.8 -0.004,0.094 0,0.188 0.012,0.282 0.011,0.125 0.035,0.265 0.066,0.398 0.023,0.09 0.051,0.176 0.082,0.262 0.02,0.051 0.039,0.105 0.063,0.152 0.05,0.121 0.113,0.235 0.187,0.34 -0.023,0.348 0.047,0.703 0.207,1.024 0.59,1.179 1.418,2.164 2.461,2.929 1.867,1.367 4.352,2.035 7.594,2.035 1.101,0 2.312,-0.082 3.605,-0.238 8.528,-1.043 13.942,-9.312 17.707,-16.402 1.246,-2.34 3.406,-5.481 5.637,-8.196 0.191,-0.234 0.324,-0.503 0.398,-0.793 0.161,-0.054 0.317,-0.125 0.465,-0.222 7.145,-4.606 18.442,-14.985 21.746,-20.77 0.215,-0.121 0.813,-0.402 2.36,-0.836 0.222,-0.066 0.425,-0.164 0.605,-0.293 0.063,0.008 0.125,0.008 0.188,0.008 0.164,0 0.328,-0.019 0.488,-0.058 1.871,-0.473 4.242,-0.985 6.754,-1.524 5.781,-1.242 12.973,-2.789 18.551,-4.867 0.32,-0.094 0.629,-0.195 0.925,-0.313 0.321,0.665 0.989,1.106 1.739,1.129 0.351,0.012 0.707,0.016 1.058,0.016 3.504,0 6.828,-0.527 10.16,-1.609 0.094,-0.032 0.184,-0.071 0.274,-0.114 0.144,-0.074 0.293,-0.148 0.437,-0.218 0.371,0.503 0.969,0.812 1.614,0.812 l 0.007,0 c 2.059,-0.008 4.395,-0.019 7.739,-1.281 0.105,-0.039 0.211,-0.09 0.308,-0.149 0.68,-0.402 1.336,-0.824 1.961,-1.277 -0.004,2.055 1.375,4.434 3.051,5.453 0.074,0.047 0.156,0.09 0.234,0.125 l 12.118,5.332 c -0.571,0.071 -1.168,0.137 -1.797,0.207 -11.094,1.242 -22.199,5.375 -34.953,13.016 -8.235,4.933 -8.907,8.726 -8.899,12.496 0,0.519 0,0.965 -0.051,1.352 -0.246,1.91 -0.378,3.714 0.543,6.437 0.012,0.039 0.028,0.082 0.043,0.121 1.411,3.422 4.036,9.789 14.106,9.789 0.988,0 2.039,-0.066 3.133,-0.187 11.269,-1.274 18.121,-3.813 29.476,-8.016 4.18,-1.547 8.918,-3.301 14.719,-5.301 4.258,-1.465 7.988,-2.148 11.734,-2.148 1.789,0 3.375,0.148 4.907,0.289 1.41,0.137 2.742,0.262 4.117,0.262 3.347,0 6.656,-0.77 10.89,-3.645 -1.554,1.453 -2.886,2.477 -3.414,2.699 -0.609,0.258 -1.07,0.809 -1.203,1.457 -0.129,0.649 0.051,1.328 0.516,1.801 0.941,0.961 2.199,1.469 3.637,1.469 0.941,0 1.937,-0.219 2.96,-0.61 0.293,0.793 1.047,1.309 1.875,1.309 0.083,0 0.165,-0.004 0.247,-0.016 3.464,-0.421 11.089,-5.074 23.089,-12.968 0.5,-0.328 1.196,-0.84 2,-1.582 0.278,0.613 0.852,1.05 1.528,1.148 0.32,0.047 0.664,0.074 1.015,0.074 7.95,0 24.676,-12.187 49.289,-30.773 8.219,-6.207 15.981,-12.067 22.645,-16.676 10.148,-7.016 79.898,-42.656 166.453,-42.656 87.117,0 159.219,35.562 214.305,105.699 0.394,0.5 0.98,0.766 1.574,0.766 0.395,0 0.789,-0.114 1.133,-0.352 0.871,-0.598 1.125,-1.769 0.582,-2.676 C 737.242,206.105 697.348,167.199 650.137,143.023 611.223,123.094 567.078,112.988 518.93,112.984"
                 style="fill:#ffcc00;fill-opacity:1;fill-rule:nonzero;stroke:none"
                 id="path3033" /><path
                 d="m 112.387,274.152 c -3.684,0 -6.555,-0.793 -8.778,-2.422 -1.3,-0.953 -2.332,-2.183 -3.066,-3.648 -0.215,-0.434 -0.352,-0.898 -0.402,-1.371 -0.004,-0.016 -0.012,-0.031 -0.02,-0.043 -0.047,-0.105 -0.09,-0.211 -0.129,-0.32 -0.019,-0.055 -0.039,-0.106 -0.054,-0.16 -0.098,-0.286 -0.165,-0.583 -0.196,-0.883 -0.008,-0.063 -0.015,-0.16 -0.019,-0.227 -0.008,-0.14 -0.012,-0.277 -0.008,-0.414 0.062,-1.894 1.215,-3.082 2.226,-4.125 1.114,-1.152 2.797,-2.883 4.872,-6.476 1.683,-2.915 2.667,-5.188 3.714,-7.594 0.828,-1.903 1.676,-3.848 2.864,-6.098 -0.309,0.242 -0.649,0.434 -1.004,0.574 -0.16,0.2 -0.336,0.383 -0.532,0.551 -2.671,2.281 -5.433,5.106 -7.035,7.203 -5.152,6.742 -12.304,14.485 -21.922,14.485 l -0.003,0 c -0.434,0 -0.879,-0.016 -1.317,-0.047 -4.769,-0.348 -8.367,-1.383 -10.988,-3.16 -0.156,-0.102 -0.285,-0.2 -0.383,-0.286 -0.043,-0.035 -0.086,-0.066 -0.121,-0.097 -0.02,-0.016 -0.039,-0.031 -0.055,-0.047 -0.097,-0.063 -0.211,-0.145 -0.332,-0.242 -1.715,-1.391 -2.929,-3.141 -3.605,-5.207 -0.16,-0.473 -0.223,-0.969 -0.199,-1.461 -0.09,-0.274 -0.153,-0.563 -0.184,-0.856 -0.008,-0.109 -0.016,-0.218 -0.02,-0.328 -0.011,-0.207 -0.007,-0.41 0.012,-0.613 0.012,-0.152 0.035,-0.305 0.067,-0.453 0.007,-0.039 0.015,-0.086 0.027,-0.133 0.043,-0.207 0.105,-0.434 0.176,-0.625 0.039,-0.102 0.082,-0.203 0.129,-0.301 0.043,-0.098 0.105,-0.215 0.156,-0.312 0.59,-1.09 1.484,-1.719 2.519,-2.453 1.172,-0.829 3.055,-2.161 5.473,-4.915 -1.691,-0.492 -3.07,-1.136 -4.234,-1.964 -0.071,-0.051 -0.137,-0.102 -0.203,-0.157 -0.012,-0.007 -0.024,-0.019 -0.036,-0.027 -2.839,-2.156 -3.797,-5.129 -4.312,-7.484 -0.106,-0.465 -0.121,-0.934 -0.059,-1.391 -0.011,-0.062 -0.023,-0.129 -0.031,-0.191 -0.012,-0.114 -0.027,-0.254 -0.031,-0.332 -0.02,-0.274 -0.008,-0.551 0.031,-0.825 0.008,-0.062 0.016,-0.125 0.027,-0.187 0.379,-2.18 2.051,-3.129 3.27,-3.824 1.211,-0.688 3.039,-1.727 5.609,-4.262 2.36,-2.332 4.063,-4.168 5.864,-6.109 1.98,-2.133 4.023,-4.332 7.046,-7.313 3.789,-3.734 5.012,-4.664 7.02,-6.117 0.926,-0.672 1.977,-1.434 3.723,-2.832 1.082,-0.867 1.879,-1.52 2.527,-2.051 2.73,-2.238 3.23,-2.609 9.223,-6.309 7.222,-4.464 11.296,-7.566 14.273,-9.835 3.574,-2.727 5.934,-4.524 9.906,-5.422 0.926,-0.207 1.938,-0.309 3.094,-0.309 4.211,0 9.848,1.414 15.816,2.906 l 1.239,0.309 c 0.847,0.211 1.57,0.683 2.097,1.312 4.723,-0.515 9.645,-1.074 16.598,-3.07 6.703,-1.926 10.106,-3.574 13.109,-5.027 4.454,-2.157 7.973,-3.86 18.079,-4.375 1.492,-0.074 2.808,-0.11 4.031,-0.11 4.554,0 7.285,0.528 10.211,1.387 1.074,0.313 1.922,1.043 2.414,1.969 1.008,0.117 2.062,0.273 3.179,0.48 0.512,-0.23 1.067,-0.347 1.633,-0.347 0.266,0 0.539,0.027 0.805,0.082 3.055,0.636 6.551,1.16 10.687,1.605 6.86,0.731 12.309,2.047 17.122,3.207 5.406,1.301 10.078,2.43 15.433,2.43 5.438,0 11.223,-1.168 18.203,-3.672 l 3.137,-1.125 c 14.531,-5.207 27.082,-9.707 35.988,-14.477 3.602,-1.929 89.321,-47.207 192.192,-47.207 48.465,0 92.918,10.18 132.117,30.258 47.551,24.352 87.719,63.508 119.383,116.383 1.086,1.809 0.578,4.152 -1.164,5.348 -0.688,0.476 -1.481,0.707 -2.262,0.707 -1.191,0 -2.363,-0.528 -3.149,-1.528 C 709.168,192.52 637.594,157.215 551.121,157.215 c -86.039,0 -155.254,35.344 -165.316,42.301 -6.629,4.582 -14.375,10.437 -22.578,16.629 -25.68,19.398 -41.895,31.175 -50.493,31.175 -0.449,0 -0.89,-0.031 -1.304,-0.093 -0.473,-0.071 -0.926,-0.223 -1.332,-0.446 -0.305,0.227 -0.578,0.418 -0.809,0.571 -12.824,8.437 -20.051,12.804 -23.945,13.281 -0.164,0.019 -0.328,0.031 -0.489,0.031 -0.984,0 -1.914,-0.363 -2.632,-0.992 -0.75,0.191 -1.485,0.293 -2.203,0.293 -1.989,0 -3.743,-0.715 -5.067,-2.07 -0.586,-0.598 -0.961,-1.352 -1.09,-2.153 -1.449,0.321 -2.855,0.438 -4.269,0.438 -1.469,0 -2.844,-0.129 -4.305,-0.266 -1.484,-0.137 -3.023,-0.281 -4.719,-0.281 -3.519,0 -7.043,0.648 -11.086,2.039 -5.773,1.992 -10.504,3.742 -14.675,5.285 -11.102,4.109 -18.434,6.824 -29.946,8.129 -1.164,0.129 -2.293,0.199 -3.355,0.199 -11.406,0 -14.594,-7.726 -15.953,-11.027 -0.035,-0.078 -0.063,-0.16 -0.09,-0.242 -1.059,-3.125 -0.902,-5.254 -0.629,-7.336 0.031,-0.258 0.031,-0.66 0.031,-1.09 -0.012,-4.195 0.742,-8.75 9.867,-14.215 11.036,-6.609 20.879,-10.648 30.563,-12.5 l -5.703,-2.508 c -0.164,-0.074 -0.321,-0.156 -0.469,-0.246 -1.406,-0.859 -2.617,-2.32 -3.332,-3.965 -0.082,0.035 -0.16,0.067 -0.242,0.098 -3.68,1.391 -6.317,1.402 -8.434,1.414 l -0.019,0 c -0.696,0 -1.364,-0.184 -1.946,-0.508 -3.453,1.098 -6.906,1.637 -10.543,1.637 -0.371,0 -0.742,-0.008 -1.113,-0.02 -0.848,-0.023 -1.641,-0.316 -2.285,-0.8 -5.656,2.058 -12.738,3.578 -18.457,4.808 -2.492,0.535 -4.84,1.043 -6.676,1.504 -0.211,0.055 -0.422,0.09 -0.633,0.106 -0.191,0.089 -0.39,0.164 -0.597,0.222 -0.75,0.211 -1.223,0.371 -1.512,0.481 -3.832,6.113 -14.945,16.297 -22.039,20.875 -0.121,0.215 -0.258,0.422 -0.418,0.613 -2.117,2.582 -4.242,5.668 -5.414,7.871 -3.992,7.512 -9.789,16.289 -19.231,17.441 -1.371,0.168 -2.664,0.254 -3.847,0.254 m 114.301,-61.429 c 0.472,0 0.937,-0.024 1.39,-0.075 -3.074,-0.425 -5.062,-1.523 -6.652,-2.851 -0.293,0.461 -0.621,0.887 -0.953,1.328 l 0.023,0.02 0.024,-0.004 0.011,0.011 0.039,0.032 c 0.016,0.015 0.043,0.039 0.063,0.05 l 0.027,0.02 0.02,0 c 2.226,1.074 4.195,1.469 6.008,1.469 m -147.18,25.765 c 0.156,0 0.316,-0.004 0.476,-0.011 l 0.254,-0.004 c 4.864,-6.852 10.934,-16.243 20.731,-24.551 15.812,-13.41 22.773,-21.359 28.765,-24.406 6.985,-3.555 11.555,-6.118 23.309,-7.711 -6.227,-1.555 -12.105,-3.098 -16.086,-3.098 -0.824,0 -1.566,0.066 -2.215,0.215 -5.808,1.305 -6.984,4.887 -22.957,14.754 -7.519,4.644 -6.035,3.824 -11.351,8.078 -5.313,4.254 -4.727,3.051 -10.434,8.676 -5.707,5.625 -7.875,8.449 -12.91,13.418 -4.762,4.703 -7.602,5.082 -7.75,5.929 l 0.004,0.024 c 0,0.012 -0.008,0.027 -0.012,0.039 0.004,0.019 0.008,0.066 0.012,0.086 l 0.004,0.023 0.023,0.02 0.016,0.011 0,0.024 0.027,0.019 0.012,0.012 0.012,0.008 0.027,0.02 0.023,0.023 0.035,0.008 0.012,0.008 c 0,0 5.871,-1.207 8.125,-2.329 -2.894,2.043 -5.652,3.383 -8.18,3.383 -0.035,0 -0.074,0 -0.109,0 0.477,2.184 1.172,3.922 2.859,5.184 0.04,0.027 0.067,0.051 0.102,0.082 1.191,0.848 2.883,1.469 5.258,1.902 0.625,0.114 1.262,0.164 1.918,0.164 m 3.387,20.696 c 7.402,0.004 13.46,-6 18.75,-12.914 1.875,-2.457 4.875,-5.477 7.613,-7.817 -0.164,-2.492 0.672,-4.398 -2.324,-7.39 3.707,2.996 4.281,4.457 3.988,6.16 5.023,-4.047 10.617,-7.825 15.098,-11.211 L 126.031,226 c 0.012,-0.004 0.055,-0.016 0.055,-0.016 l 0.012,-0.015 c 0.336,-0.317 0.672,-0.625 1.019,-0.922 10.535,-9.012 12.535,-26.297 22.793,-27.563 10.488,-1.289 12.231,-6.738 27.223,-11.109 16.672,-4.871 21.73,-14.945 34.863,-14.945 1.551,0 3.211,0.14 5.016,0.449 -2.512,-0.738 -4.821,-1.227 -9.086,-1.227 -1.125,0 -2.391,0.032 -3.828,0.106 -15.805,0.805 -13.211,4.344 -30.289,9.25 -17.063,4.898 -22.95,1.594 -37.446,8.301 -14.562,6.734 -12.843,8.703 -21.004,15.25 -8.168,6.554 -6.664,5.23 -12.418,10.886 -5.753,5.653 -5.179,4.168 -11.23,11.481 -6.059,7.32 -8.27,10.894 -13.609,17.367 -4.668,5.656 -7.844,6.738 -8.348,7.668 -0.012,0.019 -0.024,0.043 -0.031,0.062 -0.004,0.016 -0.008,0.055 -0.012,0.071 -0.004,0.008 -0.008,0.027 -0.008,0.035 -0.004,0.008 -0.008,0.027 -0.012,0.039 l -0.007,0.031 c 0,0.02 0.007,0.055 0.007,0.074 0,0 0,0.016 0.004,0.024 0,0 0,0.012 0,0.019 0.004,0.012 0.004,0.028 0.008,0.043 l -0.012,0.012 0.028,0.02 0.011,0.011 -0.007,0.036 0.023,0.019 0.016,0.035 0.027,0.02 c 0.004,0.004 0.024,0.004 0.035,0.008 l 0.024,0.019 0.011,0.012 c 0.012,0 0.059,0.004 0.059,0.004 l 0.012,0.011 c 0.023,0.008 0.062,0.024 0.082,0.028 0.019,0 0.039,0 0.058,0 l 0.024,0 c 0.047,0.004 0.094,0.004 0.144,0.004 1.672,0 6.645,-2.231 8.985,-3.727 -3.203,2.785 -6.321,4.715 -9.332,4.977 0.453,1.375 1.254,2.48 2.328,3.351 0.054,0.043 0.121,0.078 0.176,0.114 0.07,0.058 0.14,0.121 0.214,0.175 0.036,0.028 0.063,0.059 0.102,0.082 0.031,0.028 0.062,0.059 0.098,0.082 2.269,1.547 5.515,2.235 9.066,2.496 0.344,0.024 0.684,0.036 1.02,0.036 m 157.168,-29.215 c 0.48,0 1.39,0.281 2.609,1 3.723,2.191 5.531,8.715 5.82,12.539 -0.633,-4.067 -3.746,-10.578 -6.785,-11.863 -1.207,-0.512 -1.855,-1.036 -2.008,-1.356 0,-0.004 -0.011,-0.027 -0.015,-0.031 l 0,-0.047 c -0.004,-0.004 -0.004,-0.023 -0.004,-0.023 0,-0.008 0.019,-0.047 0.019,-0.047 0,-0.008 -0.008,-0.039 -0.011,-0.047 l 0.035,-0.039 0.007,-0.012 c 0.024,-0.008 0.083,-0.035 0.106,-0.043 0.059,-0.023 0.133,-0.031 0.227,-0.031 m -5.231,0.406 c 0.809,0 2.094,0.27 3.719,0.965 6.109,2.613 7.82,12.594 7.285,17.625 0.203,-5.438 -3.879,-15.156 -8.926,-16.52 -1.699,-0.457 -2.64,-0.98 -2.941,-1.386 -0.012,-0.016 -0.031,-0.039 -0.043,-0.055 0,-0.004 -0.024,-0.031 -0.024,-0.039 l -0.015,-0.012 c -0.004,-0.008 -0.012,-0.043 -0.02,-0.055 l 0,-0.023 c -0.004,-0.008 0,-0.02 0,-0.027 l -0.004,-0.043 c -0.004,-0.008 -0.004,-0.02 -0.004,-0.02 0.004,-0.012 0.02,-0.047 0.02,-0.047 0,-0.011 -0.008,-0.039 -0.012,-0.047 l 0.024,-0.027 0.011,-0.012 0.008,-0.015 0.02,-0.02 0.023,-0.031 0.02,-0.023 c 0.007,0 0.039,0 0.047,0 l 0.031,-0.036 c 0.012,-0.011 0.035,-0.027 0.043,-0.031 0.168,-0.078 0.414,-0.121 0.738,-0.121 m -19.769,30.234 -0.024,0.004 -0.012,-0.011 c -0.011,-0.004 -0.023,-0.012 -0.023,-0.02 l -0.016,-0.012 c -0.015,-0.007 -0.027,-0.015 -0.035,-0.031 l -0.078,-0.062 c -4.836,-3.758 -8.055,-15.731 -7.117,-18.922 0,-0.008 0.008,-0.012 0.008,-0.012 0.007,-0.023 0.011,-0.039 0.015,-0.055 0.067,-0.168 0.184,-0.328 0.297,-0.488 l -0.027,-0.023 c -0.571,-0.055 -1.149,-0.082 -1.723,-0.082 -2,0 -3.973,0.3 -5.476,0.535 -1.497,0.234 -3.801,0.765 -4.977,1.808 1.141,-1.332 3.715,-2.101 5.379,-2.437 1.758,-0.356 4.117,-0.828 6.434,-0.828 2.441,0 4.839,0.527 6.437,2.261 3.383,3.676 5.313,9.668 3.809,14.579 l -0.032,0.117 0.032,-0.117 c 1.082,-4.497 -1.094,-10.02 -4.461,-13.524 -1.309,-1.355 -3.078,-2.004 -4.961,-2.25 -0.403,4.215 2.66,15.141 7.258,19.75 -0.051,0.059 -0.114,0.125 -0.165,0.18 -0.164,-0.098 -0.335,-0.203 -0.496,-0.321 l -0.023,-0.019 -0.012,-0.008 -0.011,-0.012 m -1.114,1.887 c 0.008,0 0.012,0.004 0.016,0.004 0,0 0,0 0,0 0.004,0 0.004,0 0.004,0 0,0 0,0 -0.004,0 0,0.004 -0.004,0.012 -0.004,0.012 -0.008,0 -0.016,-0.012 -0.016,-0.012 0,-0.004 0.004,-0.004 0.004,-0.004 m -18.644,-12.742 c 1.027,6.73 4.519,16.461 9.09,16.461 0.343,0 0.691,-0.051 1.046,-0.168 2.586,-0.836 5.7,-1.625 8.239,-3.344 -2.711,2.059 -5.996,3.152 -8.75,4.18 -0.414,0.152 -0.821,0.226 -1.211,0.226 -0.524,0 -1.031,-0.129 -1.512,-0.367 -0.129,-0.066 -0.277,-0.133 -0.41,-0.215 -0.02,-0.007 -0.035,-0.027 -0.051,-0.039 l -0.012,-0.011 -0.027,-0.02 -0.012,-0.012 c -0.015,-0.007 -0.039,-0.027 -0.047,-0.039 l -0.011,-0.011 c -0.067,-0.043 -0.129,-0.102 -0.192,-0.153 -3.379,-2.613 -5.531,-10.64 -6.14,-16.488 m -82.918,20.398 c 1.074,0 2.203,-0.082 3.363,-0.226 7.176,-0.875 12.133,-7.723 16.184,-15.352 1.375,-2.586 3.691,-5.89 5.855,-8.527 -0.473,-2.277 -0.016,-4.195 -3.187,-6.422 3.832,2.125 4.554,3.371 4.511,4.996 7.192,-4.637 18.395,-15.109 21.219,-20.297 l 0.008,-0.015 c 0.316,-0.52 1.558,-1.016 3.422,-1.539 -0.293,-2.614 -0.961,-5.227 -1.914,-7.95 1.539,2.504 2.648,5.012 3.25,7.594 6.269,-1.586 17.336,-3.418 25.168,-6.355 4.031,-1.137 5.859,-4.61 7.707,-8.086 -0.11,3.062 -0.965,6.05 -4.356,8.808 0.328,0.008 0.66,0.016 0.992,0.016 3.063,0 6.231,-0.438 9.543,-1.516 3.43,-1.711 6.438,-3.64 8.055,-6.48 -0.734,2.746 -3.121,4.695 -5.109,6.867 2.035,-0.012 4.058,-0.031 7.039,-1.156 4.699,-2.766 7.711,-6.731 10.109,-11.895 -0.383,1.684 -0.883,3.235 -1.527,4.688 12.746,0.992 23.66,2.523 31.105,5.043 -6.625,-1.231 -15.054,-2.61 -22.504,-2.61 -1.461,0 -2.886,0.051 -4.254,0.172 1.93,2.453 5.043,2.992 8.317,2.992 0.39,0 0.785,-0.007 1.18,-0.019 -2.379,1.855 -5.372,1.726 -9.083,1.758 l -6.968,-0.817 c -0.149,-0.039 -0.309,-0.054 -0.434,-0.058 -0.086,0.004 -0.195,0.015 -0.273,0.035 -0.004,0 -0.016,0 -0.032,0 -0.003,0 -0.011,0 -0.015,0 0,0 -0.028,0.004 -0.039,0.004 l -0.004,0 -0.008,0.011 -0.012,0.012 c -0.05,0.02 -0.117,0.055 -0.164,0.082 l -0.031,0.012 c 0,0 -0.023,0.023 -0.02,0.027 0,0 -0.015,0.008 -0.011,0.012 -0.016,0.012 -0.063,0.027 -0.078,0.039 l -0.063,0.078 -0.012,0.012 -0.007,0.012 c -0.008,0.015 -0.008,0.058 -0.012,0.07 -0.008,0 -0.024,0.031 -0.024,0.031 -0.57,1.016 0.379,3.555 1.934,4.5 L 238,226.098 c 5.191,-0.942 9.355,-3.071 13.262,-5.586 -1.231,-0.102 -2.418,-0.34 -3.582,-0.699 -0.832,-0.415 -1.75,-0.715 -2.563,-1.157 -0.082,-0.051 -0.16,-0.093 -0.242,-0.14 -0.926,-0.563 -1.687,-1.348 -2.125,-2.703 3.109,1.972 6.141,2.601 9.148,2.601 0.899,0 1.797,-0.059 2.696,-0.152 0,0 0.004,0 0.004,0 0.004,0 0.007,0 0.011,0 3.719,-2.586 7.403,-5.305 11.743,-7.379 3.312,-1.582 6.312,-2.043 8.785,-2.043 2.011,0 3.672,0.305 4.863,0.562 -6.418,0.516 -16.375,4.411 -24.207,9.129 -11.242,6.766 -9.102,7.77 -24.852,9.532 -12.222,1.367 -23.367,6.285 -34.148,12.742 -9.57,5.734 -7.594,9.343 -7.992,12.39 -0.231,1.774 -0.324,3.239 0.453,5.539 1.48,3.59 3.75,8.551 12.254,8.551 0.898,0 1.863,-0.058 2.906,-0.176 15.156,-1.714 22.406,-5.855 43.77,-13.218 5.203,-1.793 9.132,-2.258 12.386,-2.258 3.539,0 6.285,0.547 9.024,0.547 5.094,0 10.152,-1.899 20.187,-12.785 -0.051,6.191 -9.886,14.875 -11.972,15.699 0.589,0.605 1.347,0.871 2.211,0.871 4.343,0 11.394,-6.742 13.632,-11.449 -1.422,4.679 -4.316,9.293 -8.793,12.148 3.489,-0.426 13.707,-7.047 22.235,-12.656 2.011,-1.32 6.336,-5.195 9.148,-14.281 0,0 0.02,0.003 0.031,0.011 0.016,0 0.055,0 0.059,0.004 l 0.047,0.016 0.016,0.012 c 0.007,0 0.039,0.015 0.046,0.015 0,0 0.004,0.012 0.012,0.012 l 0.004,0 c 0.004,0.008 0.031,0.023 0.039,0.031 0,0 0.004,0.008 0.012,0.008 0,0 0.004,0.012 0.012,0.012 0,0.007 0.023,0.035 0.023,0.043 l 0.012,0.011 c 0.914,1.184 0.031,7.946 -4.543,13.368 0.226,0.031 0.468,0.05 0.722,0.05 11.145,0 47.985,-31.32 70.797,-47.093 12.711,-8.789 83.102,-43.012 167.59,-43.012 70.59,0 151.024,23.89 215.879,106.465 C 699.07,146.262 603.547,114.984 518.93,114.984 c -97.703,0 -180.871,41.684 -190.301,46.731 -9.824,5.262 -23.785,10.14 -39.664,15.844 -8.031,2.879 -14.164,3.906 -19.555,3.906 -10.832,0 -18.687,-4.133 -32.98,-5.66 -4.805,-0.516 -8.332,-1.094 -11.078,-1.668 l -0.008,0.015 c 2.465,0.875 5.144,2.02 8.101,3.403 -9.445,-3.754 -14.632,-3.75 -20.152,-4.047 -0.605,-0.031 -1.164,-0.047 -1.684,-0.047 -5.16,0 -6.847,1.766 -20.269,8.633 -5.985,3.058 -10.809,5.07 -14.754,6.625 -6.375,2.508 -13.473,7.433 -18.586,8.82 -14.719,4 -15.043,7.16 -19.816,15.43 -3.575,6.195 -5.399,8.324 -9.188,12.203 -5.211,5.34 -4.668,4.984 -9.707,13 -4.641,7.359 -5.039,11.004 -9.016,17.894 -3.695,6.399 -6.527,7.786 -6.558,8.731 0,0.019 0.004,0.066 0.004,0.09 0.004,0.008 0.019,0.043 0.023,0.062 0,0 0.016,0.039 0.016,0.047 0,0.008 0.012,0.024 0.012,0.031 0.003,0.004 0.035,0.008 0.035,0.008 l 0.011,0.016 c 0,0 0.008,0.012 0.008,0.019 l 0.024,0.02 c 0.007,0 0.027,0.008 0.035,0.008 l 0.027,0.023 0.012,0.008 0.031,-0.012 0.035,0.008 c 0.008,0 0.032,0.004 0.032,0.004 0.011,0.004 0.054,0.004 0.066,0.008 1.316,-0.039 5.957,-3.301 7.918,-5.168 -2.559,3.191 -5.16,5.535 -7.883,6.324 0.461,0.922 1.086,1.645 1.856,2.211 1.621,1.191 3.867,1.648 6.41,1.648"
                 style="fill:#ffffff;fill-opacity:1;fill-rule:nonzero;stroke:none"
                 id="path3035" /></g></g></g></g></g><g
       id="g3037"><path
         d="m 49.207,325.319 -9.312,4.516 -8.997,-5.114 1.415,10.25 -7.645,6.981 10.187,1.82 4.274,9.426 4.883,-9.125 10.285,-1.152 -7.172,-7.465 2.082,-10.137 z"
         style="fill:#ffcc00;fill-opacity:1;fill-rule:nonzero;stroke:none"
         id="path3039" /><path
         d="m 50.734,377.975 -9.316,4.512 -8.996,-5.113 1.414,10.254 -7.645,6.976 10.188,1.824 4.277,9.426 4.879,-9.129 10.285,-1.152 -7.172,-7.461 2.086,-10.137 z"
         style="fill:#ffcc00;fill-opacity:1;fill-rule:nonzero;stroke:none"
         id="path3041" /><path
         d="m 64.836,275.225 -9.313,4.512 -9,-5.113 1.415,10.254 -7.641,6.976 10.187,1.824 4.274,9.426 4.883,-9.129 10.285,-1.152 -7.172,-7.461 2.082,-10.137 z"
         style="fill:#ffcc00;fill-opacity:1;fill-rule:nonzero;stroke:none"
         id="path3043" /><path
         d="m 71.02,424.448 -9.313,4.516 -9,-5.114 1.414,10.25 -7.641,6.977 10.188,1.824 4.273,9.426 4.879,-9.125 10.285,-1.153 -7.167,-7.464 2.082,-10.137 z"
         style="fill:#ffcc00;fill-opacity:1;fill-rule:nonzero;stroke:none"
         id="path3045" /><path
         d="m 105.641,461.589 -9.313,4.511 -9,-5.113 1.418,10.254 -7.644,6.976 10.187,1.825 4.274,9.425 4.882,-9.128 10.285,-1.153 -7.171,-7.461 2.082,-10.136 z"
         style="fill:#ffcc00;fill-opacity:1;fill-rule:nonzero;stroke:none"
         id="path3047" /><path
         d="m 146.633,488.241 -9.313,4.516 -9,-5.114 1.414,10.25 -7.64,6.981 10.187,1.82 4.274,9.426 4.879,-9.125 10.285,-1.153 -7.168,-7.464 2.082,-10.137 z"
         style="fill:#ffcc00;fill-opacity:1;fill-rule:nonzero;stroke:none"
         id="path3049" /><path
         d="m 196.305,504.413 -9.313,4.511 -8.996,-5.113 1.414,10.254 -7.644,6.977 10.187,1.824 4.274,9.426 4.882,-9.129 10.286,-1.153 -7.172,-7.461 2.082,-10.136 z"
         style="fill:#ffcc00;fill-opacity:1;fill-rule:nonzero;stroke:none"
         id="path3051" /></g></g></svg>